%YAML 1.1
%TAG !u! tag:unity3d.com,2011:
--- !u!1 &2819348756618954820
GameObject:
  m_ObjectHideFlags: 0
  m_CorrespondingSourceObject: {fileID: 0}
  m_PrefabInstance: {fileID: 0}
  m_PrefabAsset: {fileID: 0}
  serializedVersion: 6
  m_Component:
  - component: {fileID: 1530285139983609383}
  - component: {fileID: 4070098481691098658}
  - component: {fileID: 5337027392910477392}
  - component: {fileID: 8161072704282753158}
  - component: {fileID: 5334169992317706642}
  - component: {fileID: 4791746936200677900}
  m_Layer: 0
  m_Name: hippo
  m_TagString: Untagged
  m_Icon: {fileID: 0}
  m_NavMeshLayer: 0
  m_StaticEditorFlags: 0
  m_IsActive: 1
--- !u!4 &1530285139983609383
Transform:
  m_ObjectHideFlags: 0
  m_CorrespondingSourceObject: {fileID: 0}
  m_PrefabInstance: {fileID: 0}
  m_PrefabAsset: {fileID: 0}
  m_GameObject: {fileID: 2819348756618954820}
  serializedVersion: 2
  m_LocalRotation: {x: 0, y: 0, z: 0, w: 1}
  m_LocalPosition: {x: 0, y: 0, z: 0}
  m_LocalScale: {x: 1, y: 1, z: 1}
  m_ConstrainProportionsScale: 0
  m_Children: []
  m_Father: {fileID: 0}
  m_LocalEulerAnglesHint: {x: 0, y: 0, z: 0}
--- !u!212 &4070098481691098658
SpriteRenderer:
  m_ObjectHideFlags: 0
  m_CorrespondingSourceObject: {fileID: 0}
  m_PrefabInstance: {fileID: 0}
  m_PrefabAsset: {fileID: 0}
  m_GameObject: {fileID: 2819348756618954820}
  m_Enabled: 1
  m_CastShadows: 0
  m_ReceiveShadows: 0
  m_DynamicOccludee: 1
  m_StaticShadowCaster: 0
  m_MotionVectors: 1
  m_LightProbeUsage: 1
  m_ReflectionProbeUsage: 1
  m_RayTracingMode: 0
  m_RayTraceProcedural: 0
  m_RenderingLayerMask: 1
  m_RendererPriority: 0
  m_Materials:
  - {fileID: 10754, guid: 0000000000000000f000000000000000, type: 0}
  m_StaticBatchInfo:
    firstSubMesh: 0
    subMeshCount: 0
  m_StaticBatchRoot: {fileID: 0}
  m_ProbeAnchor: {fileID: 0}
  m_LightProbeVolumeOverride: {fileID: 0}
  m_ScaleInLightmap: 1
  m_ReceiveGI: 1
  m_PreserveUVs: 0
  m_IgnoreNormalsForChartDetection: 0
  m_ImportantGI: 0
  m_StitchLightmapSeams: 1
  m_SelectedEditorRenderState: 0
  m_MinimumChartSize: 4
  m_AutoUVMaxDistance: 0.5
  m_AutoUVMaxAngle: 89
  m_LightmapParameters: {fileID: 0}
  m_SortingLayerID: 0
  m_SortingLayer: 0
  m_SortingOrder: 0
  m_Sprite: {fileID: 21300000, guid: 8d85fafbebd678b4c82850fa18b31503, type: 3}
  m_Color: {r: 1, g: 1, b: 1, a: 1}
  m_FlipX: 0
  m_FlipY: 0
  m_DrawMode: 0
  m_Size: {x: 2.94, y: 2.93}
  m_AdaptiveModeThreshold: 0.5
  m_SpriteTileMode: 0
  m_WasSpriteAssigned: 1
  m_MaskInteraction: 0
  m_SpriteSortPoint: 0
--- !u!60 &5337027392910477392
PolygonCollider2D:
  m_ObjectHideFlags: 0
  m_CorrespondingSourceObject: {fileID: 0}
  m_PrefabInstance: {fileID: 0}
  m_PrefabAsset: {fileID: 0}
  m_GameObject: {fileID: 2819348756618954820}
  m_Enabled: 1
  m_Density: 1
  m_Material: {fileID: 0}
  m_IncludeLayers:
    serializedVersion: 2
    m_Bits: 0
  m_ExcludeLayers:
    serializedVersion: 2
    m_Bits: 0
  m_LayerOverridePriority: 0
  m_ForceSendLayers:
    serializedVersion: 2
    m_Bits: 4294967295
  m_ForceReceiveLayers:
    serializedVersion: 2
    m_Bits: 4294967295
  m_ContactCaptureLayers:
    serializedVersion: 2
    m_Bits: 4294967295
  m_CallbackLayers:
    serializedVersion: 2
    m_Bits: 4294967295
  m_IsTrigger: 0
  m_UsedByEffector: 0
  m_UsedByComposite: 0
  m_Offset: {x: 0, y: 0}
  m_SpriteTilingProperty:
    border: {x: 0, y: 0, z: 0, w: 0}
    pivot: {x: 0.5, y: 0.5}
    oldSize: {x: 0.98, y: 0.9766667}
    newSize: {x: 2.94, y: 2.93}
    adaptiveTilingThreshold: 0.5
    drawMode: 0
    adaptiveTiling: 0
  m_AutoTiling: 0
  m_Points:
    m_Paths:
    - - {x: 0.31, y: -0.3816667}
      - {x: 0.37333333, y: -0.315}
      - {x: 0.41, y: -0.26833335}
      - {x: 0.45333335, y: -0.18833333}
      - {x: 0.4766667, y: -0.10166667}
      - {x: 0.48333335, y: -0.035}
      - {x: 0.48000002, y: 0.011666667}
      - {x: 0.47333336, y: 0.07833333}
      - {x: 0.45666668, y: 0.155}
      - {x: 0.43, y: 0.20833334}
      - {x: 0.44333336, y: 0.22166668}
      - {x: 0.49, y: 0.2916667}
      - {x: 0.49, y: 0.35833335}
      - {x: 0.48000002, y: 0.38500002}
      - {x: 0.42666668, y: 0.44500002}
      - {x: 0.34333333, y: 0.48833334}
      - {x: 0.23, y: 0.48833334}
      - {x: 0.2, y: 0.46166667}
      - {x: 0.17333333, y: 0.44166666}
      - {x: 0.13333334, y: 0.45166668}
      - {x: 0.053333335, y: 0.465}
      - {x: -0.053333335, y: 0.46833333}
      - {x: -0.15333334, y: 0.45166668}
      - {x: -0.18333334, y: 0.435}
      - {x: -0.22, y: 0.48166668}
      - {x: -0.23666668, y: 0.48833334}
      - {x: -0.32666668, y: 0.48833334}
      - {x: -0.36333334, y: 0.48166668}
      - {x: -0.40666667, y: 0.45833334}
      - {x: -0.46666667, y: 0.405}
      - {x: -0.48666668, y: 0.36166668}
      - {x: -0.49, y: 0.35833335}
      - {x: -0.49, y: 0.2916667}
      - {x: -0.46333334, y: 0.24833333}
      - {x: -0.43, y: 0.20833334}
      - {x: -0.45666668, y: 0.155}
      - {x: -0.4766667, y: 0.075}
      - {x: -0.48000002, y: 0.011666667}
      - {x: -0.48000002, y: -0.07833333}
      - {x: -0.47, y: -0.135}
      - {x: -0.4466667, y: -0.19500001}
      - {x: -0.42000002, y: -0.25166667}
      - {x: -0.4, y: -0.28833333}
      - {x: -0.31, y: -0.38500002}
      - {x: -0.24666667, y: -0.42833334}
      - {x: -0.18333334, y: -0.46166667}
      - {x: -0.11333334, y: -0.485}
      - {x: -0.07666667, y: -0.48833334}
      - {x: 0.09666667, y: -0.48833334}
      - {x: 0.18666667, y: -0.46166667}
      - {x: 0.27666667, y: -0.4116667}
  m_UseDelaunayMesh: 0
--- !u!50 &8161072704282753158
Rigidbody2D:
  serializedVersion: 4
  m_ObjectHideFlags: 0
  m_CorrespondingSourceObject: {fileID: 0}
  m_PrefabInstance: {fileID: 0}
  m_PrefabAsset: {fileID: 0}
  m_GameObject: {fileID: 2819348756618954820}
  m_BodyType: 0
  m_Simulated: 1
  m_UseFullKinematicContacts: 0
  m_UseAutoMass: 0
  m_Mass: 1
  m_LinearDrag: 0
  m_AngularDrag: 0.05
  m_GravityScale: 1
  m_Material: {fileID: 0}
  m_IncludeLayers:
    serializedVersion: 2
    m_Bits: 0
  m_ExcludeLayers:
    serializedVersion: 2
    m_Bits: 0
  m_Interpolate: 0
  m_SleepingMode: 1
  m_CollisionDetection: 0
  m_Constraints: 0
--- !u!114 &5334169992317706642
MonoBehaviour:
  m_ObjectHideFlags: 0
  m_CorrespondingSourceObject: {fileID: 0}
  m_PrefabInstance: {fileID: 0}
  m_PrefabAsset: {fileID: 0}
  m_GameObject: {fileID: 2819348756618954820}
  m_Enabled: 1
  m_EditorHideFlags: 0
  m_Script: {fileID: 11500000, guid: 3be0ffe700121dc4fb048e0d7b200524, type: 3}
  m_Name: 
  m_EditorClassIdentifier: 
--- !u!114 &4791746936200677900
MonoBehaviour:
  m_ObjectHideFlags: 0
  m_CorrespondingSourceObject: {fileID: 0}
  m_PrefabInstance: {fileID: 0}
  m_PrefabAsset: {fileID: 0}
  m_GameObject: {fileID: 2819348756618954820}
  m_Enabled: 1
  m_EditorHideFlags: 0
  m_Script: {fileID: 11500000, guid: bc71826126a54c81bde5e874bbd71801, type: 3}
  m_Name: 
  m_EditorClassIdentifier: 
